{
  "project_info": {
    "project_number": "33657746693",
    "firebase_url": "https://vuteur-pinpointdemo.firebaseio.com",
    "project_id": "vuteur-pinpointdemo",
    "storage_bucket": "vuteur-pinpointdemo.appspot.com"
  },
  "client": [
    {
      "client_info": {
        "mobilesdk_app_id": "1:33657746693:android:bb03d63765f9127c",
        "android_client_info": {
          "package_name": "com.raurnet.pinpointdemo"
        }
      },
      "oauth_client": [
        {
          "client_id": "33657746693-e1bgq6hpviih0ah7c3lfj9pmv9mjrh0h.apps.googleusercontent.com",
          "client_type": 3
        }
      ],
      "api_key": [
        {
          "current_key": "AIzaSyDAe5pos2A50jez5GTrZTsSngGudxYXZi8"
        }
      ],
      "services": {
        "analytics_service": {
          "status": 1
        },
        "appinvite_service": {
          "status": 1,
          "other_platform_oauth_client": []
        },
        "ads_service": {
          "status": 2
        }
      }
    }
  ],
  "configuration_version": "1"
}